…
``` r
# Create model with minimum lambda value
lambda_min <- cv_output$lambda.min
lasso_min <- glmnet(x_vars[train,], y_var[train], alpha = 1, lambda = lambda_min)
pred_min <- predict(lasso_min, s = lambda_min,  newx = x_vars[x_test,])

lasso_min %>% 
  tidy() %>%
  mutate(est_ab = abs(estimate)) %>%
  arrange(desc(est_ab))
```

    ## # A tibble: 47 x 6
    ##    term                 step estimate lambda dev.ratio est_ab
    ##    <chr>               <dbl>    <dbl>  <dbl>     <dbl>  <dbl>
    ##  1 (Intercept)             1   16.6   0.0398     0.316 16.6  
    ##  2 SUPERCPTH16             1    3.38  0.0398     0.316  3.38 
    ##  3 SNAP_REPORTSIMPLE09     1   -2.48  0.0398     0.316  2.48 
    ##  4 PCH_WICWOMEN_14_16      1    2.09  0.0398     0.316  2.09 
    ##  5 SUPERCPTH11             1    1.77  0.0398     0.316  1.77 
    ##  6 SNAP_OAPP16             1   -1.47  0.0398     0.316  1.47 
    ##  7 RECFACPTH16             1   -1.03  0.0398     0.316  1.03 
    ##  8 WICSPTH16               1   -1.00  0.0398     0.316  1.00 
    ##  9 RECFACPTH11             1   -0.527 0.0398     0.316  0.527
    ## 10 FFRPTH11                1   -0.362 0.0398     0.316  0.362
    ## # ... with 37 more rows
…
